<svg width="265" height="68" viewBox="0 0 265 68" fill="none" xmlns="http://www.w3.org/2000/svg">
<path fill-rule="evenodd" clip-rule="evenodd" d="M83.0004 41.4416C83.117 41.4948 83.235 41.5446 83.3544 41.591C83.6824 41.7422 84.0145 41.8886 84.3507 42.0301H82.9096C82.9437 41.8353 82.974 41.639 83.0004 41.4416ZM114.887 42.0301L114.707 42.0301C114.707 41.6454 114.699 41.2637 114.682 40.8853C114.829 40.8085 114.974 40.7307 115.119 40.6519C115.026 41.1057 114.949 41.5653 114.887 42.0301ZM264.984 68H0C1.03997 65.55 3.22181 63.6714 5.90391 62.9857C5.53848 62.0479 5.33852 61.0315 5.33852 59.9698C5.33852 55.2518 9.28738 51.4271 14.1585 51.4271C15.2129 51.4271 16.224 51.6063 17.1613 51.9349C18.4465 45.2777 26.4451 40.1507 36.1204 40.1507C36.3119 40.1507 36.5027 40.1527 36.6928 40.1567C38.4457 35.9872 43.4897 32.9749 49.4387 32.9749C51.8887 32.9749 54.1851 33.4858 56.1615 34.378C58.1557 28.9639 63.2392 25.1156 69.1955 25.1156C69.2673 25.1156 69.3391 25.1161 69.4107 25.1172C69.2686 24.2207 69.1955 23.3079 69.1955 22.3819C69.1955 10.0207 82.2267 0 98.3016 0C109.717 0 119.597 5.05314 124.366 12.4092C128.365 7.39413 135.109 4.10048 142.754 4.10048C155.03 4.10048 164.981 12.5913 164.981 23.0653C164.981 23.1753 164.98 23.2851 164.978 23.3947C165.858 23.7408 166.695 24.1695 167.479 24.6707C170.599 19.0041 176.331 15.206 182.886 15.206C191.979 15.206 199.489 22.516 200.638 31.9837C203.058 28.1762 207.474 25.6281 212.521 25.6281C220.169 25.6281 226.368 31.4799 226.368 38.6984C226.368 40.4371 226.009 42.0965 225.356 43.6139C226.804 43.361 228.326 43.2261 229.896 43.2261C235.52 43.2261 240.523 44.9555 243.717 47.6416C244.808 46.8944 246.047 46.4723 247.36 46.4723C251.744 46.4723 255.298 51.1767 255.298 56.9799C255.298 57.6716 255.247 58.3478 255.151 59.0023C255.489 58.9643 255.832 58.9447 256.18 58.9447C261.051 58.9447 265 62.7695 265 67.4875C265 67.6595 264.995 67.8304 264.984 68Z" fill="white" fill-opacity="0.35"/>
</svg>
