<svg width="191" height="145" viewBox="0 0 191 145" fill="none" xmlns="http://www.w3.org/2000/svg">
<path d="M105.954 0L89.2556 16.8672L92.083 20.7368L112.365 11.7275L111.1 3.04464L105.954 0Z" fill="#A86A40"/>
<path d="M108.355 8.41576L92.083 20.7367L112.365 11.7275L111.1 3.04462L108.355 8.41576Z" fill="#8E5630"/>
<path d="M116.411 36.6365C106.078 30.9864 85.3104 35.4258 68.6953 54.4414C53.0502 72.3412 57.6048 73.1187 40.6761 88.6505C22.9786 104.883 14.952 103.179 10.3975 113.933C10.3975 113.933 22.4048 101.986 50.844 109.844C89.7999 120.604 116.411 36.6365 116.411 36.6365Z" fill="#9E4379"/>
<path d="M110.201 53.1476C99.8672 47.4975 90.143 41.8475 73.5278 60.8631C57.8828 78.7629 57.6048 73.1188 40.6761 88.6506C22.9786 104.883 14.952 103.179 10.3975 113.933C10.3975 113.933 22.4048 101.986 50.844 109.844C89.7999 120.604 110.201 53.1476 110.201 53.1476Z" fill="#722A59"/>
<path d="M157.757 27.7578C151.7 19.0631 139.474 24.9447 125.982 29.9657C111.697 35.2834 104.002 47.9961 107.284 54.8628C110.567 61.7296 127.342 66.4004 137.871 54.8272C149.843 41.6694 163.216 40.4231 157.757 27.7578Z" fill="#A48CE0"/>
<path d="M177.779 21.0988C177.158 20.1255 176.555 16.3924 175.709 15.7573C168.315 19.5616 160.466 16.7781 151.055 20.2382C139.622 24.4461 132.328 34.3219 134.381 39.7464C136.433 45.171 142.342 46.5301 153.06 42.2629C163.784 37.9956 170.74 25.5975 177.779 21.0988Z" fill="#A48CE0"/>
<path d="M125.875 30.8915C132.358 28.4819 138.959 27.1465 144.312 26.0426C146.418 24.6242 148.92 22.2442 151.511 21.2946C160.915 17.8346 168.765 22.3748 176.158 18.5764C176.614 18.9207 176.998 20.1611 177.359 21.3896C177.501 21.2946 177.643 21.1938 177.785 21.0988C177.164 20.1255 176.56 16.3924 175.715 15.7573C168.321 19.5616 160.472 16.7781 151.061 20.2382C148.476 21.1878 146.104 22.4342 143.999 23.8526C138.646 24.9506 132.464 27.556 125.982 29.9656C112.212 35.0934 104.569 47.088 106.977 54.0972C107.001 47.0346 113.82 35.3842 125.875 30.8915Z" fill="#907CCE"/>
<path d="M175.709 15.7573C168.664 20.2501 160.844 31.3722 150.127 35.6394C138.983 40.0907 128.218 34.5771 123.066 40.239C113.554 50.6846 111.703 57.1359 106.539 51.4443C106.557 52.6847 106.794 53.836 107.284 54.8628C110.567 61.7295 127.342 66.4004 137.871 54.8272C143.153 49.0228 148.707 45.533 152.8 42.3638C152.889 42.3281 152.972 42.2985 153.066 42.2629C163.784 37.9956 170.74 25.5975 177.779 21.1047C177.164 20.1255 176.555 16.3924 175.709 15.7573Z" fill="#7059AA"/>
<path d="M135.339 56.2813C132.979 35.9422 124.314 30.0428 90.0897 48.1088C62.4077 59.3437 80.0402 83.772 62.1889 101.12C56.2384 117.352 63.0288 110.325 75.5803 110.586C102.227 89.8672 138.622 84.591 135.339 56.2813Z" fill="#9275C9"/>
<path d="M75.3023 58.9342C104.978 54.0675 112.59 75.8429 127.058 55.8183C131.347 49.8833 131.074 34.3219 122.953 33.3604C85.3814 28.9151 67.6129 60.1983 75.3023 58.9342Z" fill="#7965B7"/>
<path d="M99.7488 61.6583C92.6509 27.829 65.2469 65.0234 65.099 94.995C59.1485 111.227 63.0288 110.325 75.5803 110.592C102.221 89.8731 138.622 84.597 135.339 56.2872C135.339 56.2872 136.374 77.3444 114.785 81.6473C101.73 84.2409 101.375 68.9287 99.7488 61.6583Z" fill="#7059AA"/>
<path d="M66.9208 95.274C59.7223 105.975 46.0469 116.135 31.5316 126.45L33.6019 129.94L80.3005 111.447L66.9208 95.274Z" fill="#9275C9"/>
<path d="M66.9208 95.274C61.5086 102.71 58.8469 104.823 49.868 112.723C50.7552 113.613 52.3818 114.877 53.3459 115.577L33.4066 129.602L33.6018 129.934L80.3004 111.441L66.9208 95.274Z" fill="#7059AA"/>
<path d="M66.0809 115.524L86.7655 123.999L99.8967 122.824C88.9008 108.651 79.5788 103.802 66.1401 93.9267C59.4147 100.425 57.3741 107.619 66.0809 115.524Z" fill="#9275C9"/>
<path d="M68.8077 98.5263C80.7086 107.274 89.3858 112.082 98.8498 122.919L99.8967 122.824C88.9008 108.651 79.5788 103.802 66.14 93.9267C60.1778 99.6836 57.9005 105.992 63.5197 112.847C61.7925 107.749 64.1999 102.972 68.8077 98.5263Z" fill="#7965B7"/>
<path d="M88.611 116.693L65.9863 131.418L65.8384 136.243C82.1223 129.81 89.6165 129.893 99.737 122.955L88.611 116.693Z" fill="#9275C9"/>
<path d="M99.8967 122.824C88.9008 108.651 79.5788 103.802 66.14 93.9267C69.6831 100.627 89.9418 111.31 92.2073 121.785L91.8701 121.815L92.0417 121.91C83.6957 127.631 77.13 128.581 65.9567 132.344L65.8384 136.237C82.1223 129.804 89.6165 129.887 99.737 122.949L99.5655 122.854L99.8967 122.824Z" fill="#7059AA"/>
<path d="M75.7932 124.771L66.0335 130.919L65.9862 130.902C59.2254 139.032 55.2447 153.698 70.8661 134.688C75.8051 132.919 79.9219 131.673 83.6306 130.45L75.7932 124.771Z" fill="#FFCD50"/>
<path d="M42.77 117.756C39.014 120.515 35.0983 123.287 31.1412 126.1L31.159 126.136C24.7235 132.326 18.8854 146.57 34.9919 129.685L45.3312 125.554L42.77 117.756Z" fill="#FFCD50"/>
<path d="M94.792 52.7143C89.0486 49.7231 76.0002 56.4059 68.8135 70.1453C61.6269 83.8848 63.0228 99.4759 68.7662 102.467C74.5096 105.458 80.5192 93.3748 92.1776 83.0064C104.865 71.724 100.535 55.7056 94.792 52.7143Z" fill="#A48CE0"/>
<path d="M90.5038 60.4298C94.5674 62.5426 97.9093 71.178 95.0346 80.0448C104.102 69.1008 100.045 55.4563 94.7921 52.7143C89.0487 49.7231 76.0003 56.4059 68.8136 70.1453C68.2931 71.1424 67.8199 72.1573 67.3822 73.1721C74.7818 62.6435 85.4642 57.8006 90.5038 60.4298Z" fill="#7965B7"/>
<path d="M79.7445 87.1015C82.2879 87.1965 84.9437 88.1935 87.2328 88.6565C88.8121 87.0006 90.8173 84.953 92.6569 83.315C105.344 72.0267 100.541 55.6996 94.7981 52.7084C94.177 52.382 93.4613 52.1802 92.6805 52.0793C108.574 66.2045 89.9419 81.7838 79.7445 87.1015Z" fill="#7965B7"/>
<path d="M88.5577 88.3122C94.1474 89.6535 98.2228 91.8316 98.3411 93.5825C98.5126 96.2473 85.6298 103.161 74.7877 104.788C76.4912 104.989 78.455 105.025 80.7382 104.847C91.882 103.981 106.125 96.8586 105.782 94.2234C105.492 91.9682 97.4953 88.9413 88.5577 88.3122Z" fill="#7965B7"/>
<path d="M105.782 94.2294C105.415 91.4281 93.2247 87.4457 82.075 88.3122C70.9312 89.1788 65.1109 93.1789 65.4125 97.3749C65.7142 101.571 69.5885 105.719 80.7323 104.853C91.8879 103.981 106.125 96.8586 105.782 94.2294Z" fill="#A48CE0"/>
<path d="M102.984 91.7308C100.541 94.8466 88.2502 100.515 78.3722 101.286C71.9604 101.785 67.9559 100.621 65.655 98.7459C66.6606 102.414 70.8188 105.619 80.7382 104.847C91.882 103.981 106.125 96.8586 105.782 94.2235C105.682 93.446 104.652 92.5676 102.984 91.7308Z" fill="#7965B7"/>
<path d="M125.432 55.7234C127.857 52.9933 127.898 63.4388 124.249 70.1631C124.249 70.1631 122.178 59.3852 125.432 55.7234Z" fill="#9E4379"/>
<path d="M127.591 54.6669C128.099 51.9843 133.05 55.9489 133.523 60.9758C133.517 60.9758 126.904 58.2576 127.591 54.6669Z" fill="#9E4379"/>
<path d="M126.762 56.4118C127.742 56.4118 128.537 55.4154 128.537 54.1862C128.537 52.957 127.742 51.9606 126.762 51.9606C125.782 51.9606 124.988 52.957 124.988 54.1862C124.988 55.4154 125.782 56.4118 126.762 56.4118Z" fill="#9E4379"/>
<path d="M70.4224 63.9789C95.1173 46.7675 101.92 71.4451 126.762 53.6402C131.69 46.2215 130.033 31.4138 121.883 30.7431C84.1747 27.6273 62.8039 62.3349 70.4224 63.9789Z" fill="#9E4379"/>
<path d="M92.012 38.6069C81.3651 45.1354 70.7182 49.2899 58.2968 71.546C79.8864 42.4647 98.761 61.6049 113.82 56.4652C102.032 53.4621 86.6886 52.7025 92.012 38.6069Z" fill="#C65CA0"/>
<path d="M118.878 40.0907L95.7621 23.2294C99.2223 32.5889 101.287 37.6573 99.1573 43.2599C121.244 54.4355 127.259 52.3582 118.878 40.0907Z" fill="#F4A773"/>
<path opacity="0.4" d="M103.398 52.9992C134.144 63.2607 134.83 38.8502 105.114 35.3783C104.457 35.3011 100.388 29.9834 99.7015 29.93C98.6073 29.841 98.8853 32.0844 99.7015 34.9984C90.977 37.325 91.3023 48.9634 103.398 52.9992Z" fill="#A55C00"/>
<path d="M108.887 8.7066C100.914 8.93213 96.6021 11.8759 93.0945 18.6417L103.629 42.619C110.845 46.085 122.214 46.2037 128.596 39.7999C121.883 19.0987 113.88 12.2735 108.887 8.7066Z" fill="#FFBE7D"/>
<path d="M120.747 21.5974C114.773 25.8824 105.232 24.9565 98.9621 22.8852L94.4963 16.2203C94.0113 16.9681 93.5499 17.7693 93.0945 18.6417L103.629 42.619C110.845 46.085 122.214 46.2037 128.596 39.7999C126.721 34.0252 122.918 25.0574 120.747 21.5974Z" fill="#DBB28D"/>
<path d="M101.718 31.6512C102.351 30.1733 101.233 28.2742 99.2223 27.4017C97.2053 26.5293 95.0582 27.0219 94.4253 28.4997C93.7924 29.9775 94.9103 31.8767 96.9214 32.7491C98.9325 33.6216 101.08 33.129 101.718 31.6512Z" fill="#FFBE7D"/>
<path d="M100.896 31.4316C101.364 30.3455 100.541 28.9508 99.0627 28.3039C97.584 27.6629 96.0047 28.0249 95.5374 29.111C95.0701 30.1971 95.8923 31.5978 97.3711 32.2387C98.8557 32.8797 100.435 32.5177 100.896 31.4316Z" fill="#F4A773"/>
<path d="M101.979 31.6808C102.251 31.0517 101.689 30.1971 100.725 29.7816C99.7607 29.3662 98.7552 29.5383 98.489 30.1733C98.2169 30.8025 98.7788 31.6571 99.743 32.0725C100.701 32.488 101.707 32.3159 101.979 31.6808Z" fill="#FFBE7D"/>
<path d="M109.514 26.1316C109.514 26.1316 115.412 27.9121 117.298 25.4491C114.353 27.1406 110.029 25.5262 109.514 26.1316Z" fill="#A56234"/>
<path d="M113.087 23.906C113.087 23.906 116.553 24.1493 118.286 22.3273C118.286 22.3273 114.731 15.9235 111.094 14.2736C111.094 14.2736 108.787 15.0867 108.497 15.6445C108.207 16.2084 113.087 23.906 113.087 23.906Z" fill="#FF9D6C"/>
<path d="M114.317 12.2201L101.872 18.2619L103.251 21.5439L117.139 15.5496L114.317 12.2201Z" fill="#776193"/>
<path d="M95.7385 13.2706L91.0657 19.2115L96.1407 27.0219C97.3592 26.8379 98.8912 26.648 100.506 28.3394L101.606 27.835C99.4827 21.6211 100.589 15.8345 95.7385 13.2706Z" fill="#A86A40"/>
<path d="M95.147 14.2023L108.604 9.76299L110.449 4.01794L103.333 4.8429L95.147 14.2023Z" fill="#A86A40"/>
<path d="M10.9062 129.513C10.9062 129.513 -1.82284 109.227 20.1631 102.093C20.9202 101.85 35.9383 93.5291 41.6225 87.7781C41.6225 87.7781 13.5087 113.019 11.2729 128.528" fill="#9E4379"/>
<path d="M105.717 18.1313L109.118 17.0452L107.32 19.0987L105.717 18.1313Z" fill="#FFD4AE"/>
<path d="M114.737 14.4398L114.625 15.692L112.324 15.6268L114.737 14.4398Z" fill="#FFD4AE"/>
<path d="M106.729 17.7633L107.32 19.0987L108.113 18.2085L107.781 17.4488L106.729 17.7633Z" fill="#824922"/>
<path d="M114.104 14.7187L114.619 15.7217L113.513 15.6861L113.282 15.1045L114.104 14.7187Z" fill="#824922"/>
<path d="M108.603 9.763L95.4131 12.3447L96.5961 13.8284L108.603 9.763Z" fill="#8E5630"/>
<path d="M190.999 20.6774L185.918 8.24365L170.468 16.1906C169.877 16.3093 146.578 13.9768 150.274 31.6333C159.295 47.6577 175.721 23.6449 176.318 23.0929L177.347 24.2562L190.999 20.6774Z" fill="#FFCD50"/>
<path d="M183.156 19.075L175.454 21.0513L177.832 26.1969L185.746 23.0395L183.156 19.075Z" fill="#EAB339"/>
<path d="M113.306 95.4342L111.898 86.8997L101.399 84.6741L98.1459 85.048L97.9211 89.4992C81.4775 84.9234 74.8054 91.6239 75.0006 96.1761C75.3082 103.316 88.0135 109.381 100.139 99.1435L113.306 95.4342Z" fill="#FFCD50"/>
<path d="M100.701 84.8284L104.321 85.048L104.215 83.6414L96.2294 81.9737L92.3077 89.428L98.27 92.0157L100.701 84.8284Z" fill="#FFCD50"/>
<path d="M78.8512 127.115C75.4797 128.207 72.9481 130.961 68.571 132.534C63.3126 138.932 61.5855 141.59 60.1304 141.893C59.462 145.418 62.0232 145.454 70.866 134.694C75.805 132.925 80.3891 131.827 84.0978 130.611L78.8512 127.115Z" fill="#EAB339"/>
<path d="M85.5589 130.996L75.9944 123.679L74.8114 124.664L83.672 131.649L85.5589 130.996Z" fill="#EAB339"/>
<path d="M125.745 55.7234C127.324 54.1328 126.703 60.9758 124.172 65.0828C124.172 65.0769 123.628 57.854 125.745 55.7234Z" fill="#C65CA0"/>
<path d="M127.017 52.287C126.337 52.1921 125.686 52.6847 125.39 53.4443C125.603 53.3553 125.828 53.3138 126.059 53.3494C126.887 53.4681 127.443 54.3999 127.295 55.4444C127.271 55.6284 127.218 55.7946 127.159 55.9608C127.709 55.7293 128.147 55.1358 128.253 54.388C128.401 53.3375 127.845 52.3998 127.017 52.287Z" fill="#C65CA0"/>
<path d="M129.111 54.7738C129.152 53.2426 132.228 56.7145 132.932 59.8838C132.938 59.8838 129.057 56.8213 129.111 54.7738Z" fill="#C65CA0"/>
<path d="M101.316 84.6326L101.127 94.0039C90.0837 98.556 87.4515 99.2088 78.1887 101.826C82.7669 105.476 91.592 106.366 100.145 99.1495L114.442 96.0811L113.087 85.5703L111.2 85.4338L110.62 85.9561L110.2 85.327L108.053 85.2023L107.385 85.7246L106.344 85.0421L101.316 84.6326Z" fill="#EAB339"/>
<path d="M98.1872 82.4188L96.2175 89.8197L98.7787 90.2411L99.2578 84.6444L104.25 85.1608L104.138 83.6414L98.1872 82.4188Z" fill="#EAB339"/>
<path d="M123.361 38.2389L126.171 40.6841L124.544 37.6454L123.361 38.2389Z" fill="#BC9779"/>
<path d="M185.912 8.24365L177.791 12.4219L180.843 19.8821C165.689 22.6775 157.585 30.1971 151.948 34.0667C161.182 44.898 175.756 23.6093 176.318 23.0929L177.347 24.2562L190.999 20.6715L185.912 8.24365Z" fill="#EAB339"/>
<path d="M178.684 18.9088L174.892 20.5765L177.714 26.3513L181.032 23.4728L178.684 18.9088Z" fill="#FFCD50"/>
<path d="M181.026 10.8254L177.335 12.6949L181.464 21.2828L186.089 20.5587L181.026 10.8254Z" fill="#FFCD50"/>
<path d="M43.2541 116.821L41.187 117.628L44.7054 126.699L46.7724 125.892L43.2541 116.821Z" fill="#EAB339"/>
<path d="M42.77 117.756C42.1134 118.236 41.445 118.723 40.7766 119.21L42.4742 124.373L32.1349 128.504C28.9585 131.833 26.6399 133.952 25.0014 135.157C23.6469 138.777 25.5338 139.608 34.9918 129.691L45.3311 125.56L42.77 117.756Z" fill="#EAB339"/>
<path d="M1.17006 125.952C-3.36671 111.013 11.7164 101.369 26.2081 96.7696C26.2081 96.7696 -6.51939 103.102 1.17006 125.952Z" fill="#9E4379"/>
<path d="M140.095 57.2012C140.095 57.2012 145.608 67.7061 131.175 81.2615C131.181 81.2615 147.719 69.534 140.095 57.2012Z" fill="#9275C9"/>
<path opacity="0.4" d="M185.196 22.1968L190.993 20.6715L185.912 8.23773L177.791 12.4159L170.468 16.1846C170.095 16.2618 160.59 15.3537 154.628 19.1759C153.463 19.4429 152.274 19.7812 151.061 20.2323C150.452 20.4578 149.86 20.7011 149.275 20.9504C149.216 20.9742 149.162 20.9979 149.103 21.0216C148.535 21.2709 147.985 21.538 147.441 21.811C147.382 21.8407 147.329 21.8703 147.27 21.9C146.72 22.1849 146.187 22.4816 145.667 22.7843C145.631 22.8021 145.602 22.8259 145.566 22.8437C145.028 23.1642 144.501 23.4965 143.993 23.8348C139.018 24.8556 133.322 27.1821 127.336 29.4433C127.301 29.4552 127.265 29.4671 127.236 29.4849C126.816 29.6451 126.402 29.7994 125.982 29.9538C125.668 30.0725 125.361 30.1971 125.053 30.3217C124.574 29.2059 124.089 28.1495 123.604 27.1465C122.551 24.8438 121.545 22.8437 120.753 21.5855C120.717 21.6092 120.676 21.6329 120.646 21.6567C119.25 19.348 117.872 17.425 116.535 15.7989L117.145 15.5377L114.323 12.2082L113.566 12.5821C113.14 12.1667 112.726 11.7868 112.318 11.4248L111.1 3.04464L105.954 0L89.2557 16.8672L91.8997 20.4875L96.1466 27.0219C96.3418 26.9922 96.5429 26.9625 96.7499 26.9447L96.7736 26.9981C95.6911 27.1109 94.798 27.6332 94.4253 28.4997C93.7924 29.9775 94.9104 31.8767 96.9215 32.7491C97.6904 33.0815 98.4771 33.212 99.1928 33.1705C99.2224 33.2833 99.2579 33.396 99.2815 33.5029C94.035 35.3012 89.3858 37.776 85.3932 40.5536C79.7207 43.8 73.9951 48.3759 68.6953 54.4414C53.1685 72.2107 57.5278 73.1128 41.0487 88.3063C40.9304 88.4191 40.7885 88.5437 40.6347 88.6861C40.2798 89.0126 39.9308 89.3212 39.5818 89.6357C32.9807 95.1671 20.8432 101.874 20.1689 102.093C-1.81698 109.227 10.912 129.513 10.912 129.513L11.2787 128.528C12.1364 122.569 16.8151 115.174 22.2569 108.325C28.7929 106.776 38.1918 106.343 50.8557 109.838C51.2935 109.957 51.7252 110.064 52.157 110.159C52.3227 110.194 52.4824 110.242 52.648 110.278C51.7903 111.025 50.8735 111.832 49.8798 112.711C49.8857 112.717 49.8857 112.717 49.8916 112.723C47.8687 114.373 45.763 116.017 43.5922 117.661L43.2609 116.812L41.1966 117.619L41.587 118.616C38.1977 121.091 34.6961 123.572 31.1589 126.082L31.1767 126.118C28.4026 128.783 25.7467 132.943 24.9009 135.466V135.471C24.7589 135.899 24.6643 136.285 24.6347 136.599C24.6347 136.599 24.6347 136.599 24.6347 136.605C24.6288 136.682 24.6229 136.753 24.6229 136.819C24.6229 136.825 24.6229 136.831 24.6229 136.842C24.6229 136.908 24.6288 136.967 24.6347 137.02C24.6347 137.026 24.6347 137.032 24.6347 137.038C24.6406 137.098 24.6525 137.151 24.6702 137.204C24.7057 137.311 24.753 137.4 24.824 137.472C24.824 137.472 24.824 137.472 24.8299 137.477C24.8595 137.507 24.895 137.537 24.9364 137.555C24.9423 137.561 24.9541 137.561 24.96 137.566C24.9955 137.584 25.031 137.596 25.0665 137.608C25.0783 137.614 25.0902 137.614 25.102 137.62C25.1434 137.626 25.1848 137.632 25.2262 137.638C25.2381 137.638 25.2558 137.638 25.2676 137.638C25.3209 137.638 25.3741 137.632 25.4273 137.626C25.4392 137.626 25.4451 137.626 25.4569 137.62C25.5929 137.596 25.7527 137.555 25.9301 137.483C25.9538 137.477 25.9774 137.466 26.0011 137.454C26.0661 137.424 26.1371 137.4 26.2081 137.365C26.2377 137.347 26.2732 137.335 26.3087 137.317C26.3737 137.282 26.4447 137.246 26.5157 137.21C26.5512 137.193 26.5926 137.169 26.6281 137.145C26.699 137.104 26.7759 137.056 26.8528 137.009C26.8942 136.985 26.9297 136.961 26.9711 136.937C27.0658 136.878 27.1604 136.819 27.2551 136.753C27.2846 136.736 27.3083 136.718 27.3379 136.7C27.468 136.611 27.604 136.516 27.7401 136.415C27.7697 136.391 27.7992 136.368 27.8288 136.35C27.9412 136.267 28.0536 136.184 28.1719 136.095C28.2251 136.053 28.2783 136.012 28.3316 135.97C28.4321 135.893 28.5327 135.816 28.6332 135.727C28.6983 135.679 28.7575 135.626 28.8225 135.572C28.9231 135.489 29.0295 135.4 29.136 135.311C29.2011 135.258 29.2661 135.198 29.3371 135.145C29.4495 135.05 29.5678 134.943 29.692 134.842C29.7571 134.789 29.8221 134.73 29.8872 134.676C30.0351 134.546 30.1889 134.409 30.3486 134.267C30.39 134.231 30.4255 134.195 30.4669 134.16C30.6621 133.982 30.8632 133.792 31.0761 133.602C31.1353 133.543 31.2003 133.483 31.2654 133.424C31.4133 133.281 31.5671 133.139 31.7268 132.985C31.8096 132.908 31.8924 132.824 31.9752 132.747C32.1171 132.611 32.265 132.468 32.4129 132.32C32.5016 132.231 32.5963 132.136 32.6909 132.047C32.8388 131.899 32.9926 131.744 33.1464 131.59C33.241 131.495 33.3297 131.406 33.4303 131.305C33.6018 131.133 33.7733 130.955 33.9508 130.777C34.0336 130.694 34.1164 130.611 34.1992 130.522C34.4654 130.249 34.7316 129.97 35.0096 129.685L44.4203 125.928L44.7219 126.7L46.7863 125.892L46.3899 124.878L68.021 116.313L81.028 121.643L76.8757 124.343L76.0062 123.679L74.8232 124.67L75.3319 125.073L66.0454 130.925L65.998 130.907C63.0642 134.433 60.6568 139.193 60.1422 141.899V141.905C60.0831 142.231 60.0476 142.528 60.0417 142.789V142.795C60.0417 142.878 60.0417 142.955 60.0476 143.027C60.0476 143.039 60.0476 143.05 60.0476 143.062C60.0535 143.128 60.0594 143.187 60.0713 143.246C60.0713 143.258 60.0772 143.276 60.0772 143.288C60.089 143.341 60.1008 143.389 60.1127 143.442C60.1186 143.454 60.1186 143.466 60.1245 143.484C60.1422 143.531 60.16 143.573 60.1836 143.614C60.1896 143.626 60.1955 143.632 60.2014 143.644C60.225 143.685 60.2546 143.727 60.2842 143.763C60.2901 143.769 60.2901 143.774 60.296 143.774C60.367 143.858 60.4498 143.917 60.5563 143.958C60.5563 143.958 60.5563 143.958 60.5622 143.958C60.6095 143.976 60.6628 143.988 60.716 144C60.7278 144 60.7456 144 60.7574 144.006C60.8047 144.012 60.8461 144.012 60.8993 144.012C60.9171 144.012 60.9408 144.012 60.9585 144.006C61.0058 144 61.0531 143.994 61.1064 143.988C61.13 143.982 61.1537 143.976 61.1774 143.97C61.2306 143.958 61.2838 143.941 61.3371 143.929C61.3607 143.923 61.3903 143.911 61.414 143.905C61.4731 143.887 61.5322 143.858 61.5973 143.834C61.621 143.822 61.6505 143.81 61.6742 143.798C61.7452 143.769 61.8221 143.727 61.899 143.685C61.9226 143.674 61.9404 143.668 61.9581 143.656C62.1592 143.549 62.3722 143.412 62.6088 143.252C62.6443 143.228 62.6797 143.205 62.7093 143.181C62.7921 143.122 62.8809 143.062 62.9696 142.997C63.0169 142.961 63.0642 142.926 63.1056 142.89C63.1884 142.831 63.2712 142.766 63.3541 142.694C63.4073 142.653 63.4605 142.605 63.5138 142.564C63.5966 142.493 63.6853 142.421 63.7681 142.35C63.8273 142.303 63.8805 142.249 63.9396 142.202C64.0284 142.125 64.123 142.041 64.2117 141.958C64.2709 141.905 64.33 141.852 64.3951 141.798C64.4956 141.709 64.5962 141.614 64.7027 141.513C64.7618 141.46 64.821 141.406 64.8801 141.347C65.0043 141.228 65.1345 141.104 65.2587 140.979C65.3001 140.938 65.3415 140.896 65.3888 140.854C65.5603 140.682 65.7437 140.504 65.9271 140.314C65.9744 140.267 66.0276 140.208 66.0749 140.16C66.211 140.018 66.3529 139.875 66.4949 139.727C66.5659 139.65 66.6428 139.572 66.7138 139.495C66.838 139.365 66.9622 139.228 67.0923 139.086C67.1751 138.997 67.2579 138.902 67.3467 138.813C67.4709 138.676 67.5951 138.54 67.7252 138.397C67.8139 138.296 67.9086 138.196 67.9973 138.089C68.1274 137.946 68.2576 137.798 68.3877 137.644C68.4823 137.537 68.577 137.43 68.6716 137.323C68.8136 137.163 68.9555 136.997 69.1034 136.825C69.1921 136.718 69.2868 136.611 69.3814 136.504C69.5411 136.32 69.7067 136.124 69.8664 135.928C69.9492 135.828 70.0321 135.733 70.1149 135.632C70.3633 135.335 70.6176 135.026 70.8779 134.712C75.2786 133.133 79.3895 132.094 82.8557 131.02L83.6838 131.673L85.5647 131.02L84.3108 130.059C89.8353 128.326 94.4254 126.622 99.7429 122.972L99.5714 122.877L99.9085 122.848C93.9226 115.132 88.4335 110.183 82.5067 105.678C83.1455 105.257 83.7843 104.847 84.4231 104.438C84.5 104.449 84.571 104.461 84.6479 104.467C84.8668 104.497 85.0856 104.521 85.3104 104.538C85.4523 104.55 85.5943 104.562 85.7363 104.574C85.8723 104.58 86.0143 104.592 86.1503 104.598C86.3278 104.604 86.5111 104.604 86.6886 104.604C86.8424 104.604 87.0021 104.604 87.1618 104.598C87.3806 104.592 87.5995 104.58 87.8183 104.568C87.9366 104.562 88.0609 104.55 88.1792 104.538C88.3803 104.521 88.5873 104.497 88.7884 104.473C88.8889 104.461 88.9954 104.449 89.096 104.438C89.3917 104.396 89.6815 104.349 89.9832 104.289C90.0779 104.271 90.1784 104.248 90.273 104.23C90.5037 104.182 90.7344 104.129 90.9651 104.07C91.0656 104.046 91.1662 104.016 91.2727 103.992C91.5862 103.909 91.8997 103.82 92.2191 103.713C92.2723 103.696 92.3196 103.678 92.3729 103.66C92.6509 103.565 92.9348 103.464 93.2128 103.357C93.3133 103.322 93.408 103.28 93.5085 103.239C93.7924 103.126 94.0704 103.007 94.3544 102.877C94.4076 102.853 94.4608 102.829 94.5082 102.805C94.8394 102.651 95.1706 102.485 95.5019 102.313C95.5906 102.265 95.6793 102.218 95.768 102.17C96.0342 102.028 96.3063 101.874 96.5725 101.713C96.6553 101.666 96.7381 101.618 96.815 101.571C97.1521 101.369 97.4834 101.155 97.8205 100.924C97.8856 100.882 97.9507 100.829 98.0157 100.788C98.2937 100.598 98.5717 100.396 98.8557 100.182C98.9503 100.111 99.039 100.046 99.1337 99.9744C99.4708 99.7133 99.8139 99.4462 100.151 99.1613L114.447 96.093L113.436 88.241C126.916 80.4306 136.753 72.0148 135.428 57.1478C136.274 56.4593 137.096 55.6996 137.877 54.8391C138.232 54.4473 138.586 54.0734 138.947 53.6995C139.06 53.5808 139.178 53.4681 139.29 53.3494C139.533 53.1001 139.775 52.8568 140.018 52.6194C140.154 52.4888 140.29 52.3582 140.42 52.2277C140.645 52.0081 140.87 51.7944 141.094 51.5867C141.23 51.4561 141.372 51.3315 141.508 51.2069C141.733 50.9991 141.958 50.7973 142.183 50.6015C142.319 50.4828 142.449 50.3641 142.579 50.2513C142.816 50.0495 143.046 49.8477 143.283 49.6519C143.401 49.551 143.52 49.4501 143.644 49.3492C143.904 49.1296 144.17 48.916 144.43 48.7023C144.513 48.6311 144.602 48.5599 144.685 48.4946C147.003 46.6251 149.222 45.0523 151.197 43.5864C151.463 43.3905 151.729 43.1947 151.984 42.9988C152.025 42.9691 152.061 42.9395 152.102 42.9098C152.339 42.7317 152.569 42.5537 152.794 42.3816C152.883 42.346 152.966 42.3163 153.06 42.2807C156.556 40.886 159.65 38.6307 162.483 36.0608C167.493 33.7403 172.225 28.286 174.65 25.2473C174.727 25.1464 174.804 25.0515 174.881 24.9565C174.881 24.9565 174.881 24.9506 174.887 24.9506C175.46 24.2265 175.88 23.6627 176.117 23.36C176.123 23.3541 176.129 23.3422 176.135 23.3363C176.158 23.3066 176.176 23.2888 176.194 23.2651C176.194 23.2651 176.194 23.2651 176.2 23.2591L177.72 26.369L177.951 26.1732L185.752 23.0633L185.196 22.1968Z" fill="url(#paint0_linear_17_9)"/>
<defs>
<linearGradient id="paint0_linear_17_9" x1="122.72" y1="-7.38743" x2="63.8008" y2="178.856" gradientUnits="userSpaceOnUse">
<stop stop-color="#FFCD61"/>
<stop offset="1" stop-color="#490019"/>
</linearGradient>
</defs>
</svg>
